STA 210 - Spring 2022 – Multiple linear regression (MLR)
…
To do so, we will fit a multiple linear regression model.

Using our model, we can answers questions such as

What is the relationship between the characteristics of a house in Levittown and its sale price?

Given its characteristics, what is the expected sale price of a house in Levittown?

The data

levittown <- read_csv(here::here("slides/data/homeprices.csv"))
levittown

# A tibble: 85 × 7
   bedrooms bathrooms living_area lot_size year_built property_tax sale_price
      <dbl>     <dbl>       <dbl>    <dbl>      <dbl>        <dbl>      <dbl>
 1        4       1          1380     6000       1948         8360     350000
 2        4       2          1761     7400       1951         5754     360000
 3        4       2          1564     6000       1948         8982     350000
 4        5       2          2904     9898       1949        11664     375000
 5        5       2.5        1942     7788       1948         8120     370000
 6        4       2          1830     6000       1948         8197     335000
 7        4       1          1585     6000       1948         6223     295000
 8        4       1           941     6800       1951         2448     250000
 9        4       1.5        1481     6000       1948         9087     299990
10        3       2          1630     5998       1948         9430     375000
# … with 75 more rows
…
