STA 210 - Spring 2022 – Logistic regression
…
Sleep7

1: yes

0: no

data(YouthRisk2009)
sleep <- YouthRisk2009 %>%
  as_tibble() %>%
  filter(!is.na(Age), !is.na(Sleep7))
sleep %>%
  relocate(Age, Sleep7)

# A tibble: 446 × 6
     Age Sleep7 Sleep           SmokeLife SmokeDaily MarijuaEver
   <int>  <int> <fct>           <fct>     <fct>            <int>
 1    16      1 8 hours         Yes       Yes                  1
 2    17      0 5 hours         Yes       Yes                  1
 3    18      0 5 hours         Yes       Yes                  1
 4    17      1 7 hours         Yes       No                   1
 5    15      0 4 or less hours No        No                   0
 6    17      0 6 hours         No        No                   0
 7    17      1 7 hours         No        No                   0
 8    16      1 8 hours         Yes       No                   0
 9    16      1 8 hours         No        No                   0
10    18      0 4 or less hours Yes       Yes                  1
# … with 436 more rows
…
0: Not high risk of having heart disease in next 10 years

age: Age at exam time (in years)

Data: heart

heart_disease <- read_csv(here::here("slides", "data/framingham.csv")) %>%
  select(age, TenYearCHD) %>%
  drop_na() %>%
  mutate(high_risk = as.factor(TenYearCHD)) %>%
  select(age, high_risk)

heart_disease

# A tibble: 4,240 × 2
     age high_risk
   <dbl> <fct>    
 1    39 0        
 2    46 0        
 3    48 0        
 4    61 1        
 5    46 0        
 6    43 0        
 7    63 1        
 8    45 0        
 9    52 0        
10    43 0        
# … with 4,230 more rows
…
age
0.075
0.005
14.178
0

. . .

\[\log\Big(\frac{\hat{\pi}}{1-\hat{\pi}}\Big) = -5.561 + 0.075 \times \text{age}\] where \(\hat{\pi}\) is the predicted probability of being high risk

Predicted log odds

augment(heart_disease_fit$fit)

# A tibble: 4,240 × 8
   high_risk   age .fitted .resid .std.resid     .hat .sigma   .cooksd
   <fct>     <dbl>   <dbl>  <dbl>      <dbl>    <dbl>  <dbl>     <dbl>
 1 0            39  -2.65  -0.370     -0.370 0.000466  0.895 0.0000165
 2 0            46  -2.13  -0.475     -0.475 0.000322  0.895 0.0000192
 3 0            48  -1.98  -0.509     -0.509 0.000288  0.895 0.0000199
 4 1            61  -1.01   1.62       1.62  0.000706  0.895 0.000968 
 5 0            46  -2.13  -0.475     -0.475 0.000322  0.895 0.0000192
 6 0            43  -2.35  -0.427     -0.427 0.000384  0.895 0.0000183
 7 1            63  -0.858  1.56       1.56  0.000956  0.895 0.00113  
 8 0            45  -2.20  -0.458     -0.458 0.000342  0.895 0.0000189
 9 0            52  -1.68  -0.585     -0.585 0.000262  0.895 0.0000244
10 0            43  -2.35  -0.427     -0.427 0.000384  0.895 0.0000183
# … with 4,230 more rows

For observation 1

\[\text{predicted odds} = \hat{\omega} = \frac{\hat{\pi}}{1-\hat{\pi}} = \exp\{-2.650\} = 0.071\]

Predicted probabilities

predict(heart_disease_fit, new_data = heart_disease, type = "prob")

# A tibble: 4,240 × 2
   .pred_0 .pred_1
     <dbl>   <dbl>
 1   0.934  0.0660
 2   0.894  0.106 
 3   0.878  0.122 
 4   0.733  0.267 
 5   0.894  0.106 
 6   0.913  0.0870
 7   0.702  0.298 
 8   0.900  0.0996
 9   0.843  0.157 
10   0.913  0.0870
# … with 4,230 more rows

\[\text{predicted probabilities} = \hat{\pi} = \frac{\exp\{-2.650\}}{1 + \exp\{-2.650\}} = 0.066\]

Predicted classes

predict(heart_disease_fit, new_data = heart_disease, type = "class")

# A tibble: 4,240 × 1
   .pred_class
   <fct>      
 1 0          
 2 0          
 3 0          
 4 0          
 5 0          
 6 0          
 7 0          
 8 0          
 9 0          
10 0          
# … with 4,230 more rows

Default prediction

For a logistic regression, the default prediction is the class.

predict(heart_disease_fit, new_data = heart_disease)

# A tibble: 4,240 × 1
   .pred_class
   <fct>      
 1 0          
 2 0          
 3 0          
 4 0          
 5 0          
 6 0          
 7 0          
 8 0          
 9 0          
10 0          
# … with 4,230 more rows
…
