STA 210 - Spring 2022 – MLR: Inference conditions + multicollinearity
…
# set default theme and larger font size for ggplot2
ggplot2::theme_set(ggplot2::theme_minimal(base_size = 20))

Data: rail_trail

The Pioneer Valley Planning Commission (PVPC) collected data for ninety days from April 5, 2005 to November 15, 2005.

Data collectors set up a laser sensor, with breaks in the laser beam recording when a rail-trail user passed the data collection station.

rail_trail <- read_csv(here::here("slides", "data/rail_trail.csv"))
rail_trail

# A tibble: 90 × 7
   volume hightemp avgtemp season cloudcover precip day_type
    <dbl>    <dbl>   <dbl> <chr>       <dbl>  <dbl> <chr>   
 1    501       83    66.5 Summer       7.60 0      Weekday 
 2    419       73    61   Summer       6.30 0.290  Weekday 
 3    397       74    63   Spring       7.5  0.320  Weekday 
 4    385       95    78   Summer       2.60 0      Weekend 
 5    200       44    48   Spring      10    0.140  Weekday 
 6    375       69    61.5 Spring       6.60 0.0200 Weekday 
 7    417       66    52.5 Spring       2.40 0      Weekday 
 8    629       66    52   Spring       0    0      Weekend 
 9    533       80    67.5 Summer       3.80 0      Weekend 
10    547       79    62   Summer       4.10 0      Weekday 
# … with 80 more rows
…
